Tutorial 2: Making a simple occurrence plot
…
Step 2: Working with spatial data

The very first thing we need to do is load the data that we generated from the first tutorial. We can just read it in using read_ebd from awk like so

house <- read_ebd("house_sparrow_test.txt", unique = TRUE, rollup = FALSE)

Next we need to convert this object, which is currently a data.frame object into a spatial object. There is a rich amount of spatial data analysis in R and lots of resources online - see the end of the tutorial for more. Here we will use sf or simple features a package that is designed to simplify using spatial data.

Have a look at the house data.frame you have read in. It has a lot of information and we do not need all of it here. First lets simplify the data so that we can extract the columns containing the common name, the latitude and the longitude of the sampling site. We will do this using the select command from dplyr.

house %>%
  dplyr::select(common_name, latitude, longitude)

## # A tibble: 97,611 x 3
##    common_name   latitude longitude
##    <chr>            <dbl>     <dbl>
##  1 House Sparrow     54.7     -5.69
##  2 House Sparrow     54.0     -1.24
##  3 House Sparrow     54.7     -5.69
##  4 House Sparrow     50.7     -1.75
##  5 House Sparrow     54.7     -5.69
##  6 House Sparrow     53.4     -2.12
##  7 House Sparrow     53.2     -2.89
##  8 House Sparrow     54.7     -5.69
##  9 House Sparrow     55.2     -1.50
## 10 House Sparrow     52.7      1.41
## #  with 97,601 more rows

Running this line does exactly what we wanted - it extracts our selected columns. If youre not familiar with %>%, its a pipe that basically sends the output of the house object to the select command. For more on this and other ways to use dplyr see here.

Now one thing you might notice is that this select command produces >97,000 observations. This is a lot and will be a nightmare to plot, so lets add another command which will subsample our data down to a fraction of its size.

house %>%
  dplyr::select(common_name, latitude, longitude) %>%
  sample_frac(0.1)

## # A tibble: 9,761 x 3
##    common_name   latitude longitude
##    <chr>            <dbl>     <dbl>
##  1 House Sparrow     54.3    -1.80 
##  2 House Sparrow     53.4    -2.04 
##  3 House Sparrow     55.6    -4.63 
##  4 House Sparrow     50.7    -2.47 
##  5 House Sparrow     56.1    -3.85 
##  6 House Sparrow     51.7    -0.271
##  7 House Sparrow     53.9    -1.80 
##  8 House Sparrow     52.8    -1.20 
##  9 House Sparrow     55.6    -4.64 
## 10 House Sparrow     50.6    -3.49 
## #  with 9,751 more rows
…
NB: when working with your own data, you may not need to run this. Here we subsampled the data simply because the house sparrow is so widespread, populous and common but if you were to work on an extremely rare species, like some of these sad examples you wouldnt need to do so because there are fewer than 200 individuals and likely only a handful of sightings, if any.

Finally we need to run a command in order to convert from a data.frame to a spatial feature.

house %>%
  dplyr::select(common_name, latitude, longitude) %>%
  sample_frac(0.1) %>%
  st_as_sf(coords = c("longitude", "latitude"), crs = 4236)

## Simple feature collection with 9761 features and 1 field
## geometry type:  POINT
## dimension:      XY
## bbox:           xmin: -7.514303 ymin: 49.89156 xmax: 1.756268 ymax: 60.8094
## geographic CRS: Hu Tzu Shan 1950
## # A tibble: 9,761 x 2
##    common_name               geometry
##  * <chr>                  <POINT []>
##  1 House Sparrow  (1.051837 52.95612)
##  2 House Sparrow (-4.636236 55.55115)
##  3 House Sparrow (0.0213718 52.92948)
##  4 House Sparrow (0.9538822 52.68278)
##  5 House Sparrow (-0.7874644 50.7226)
##  6 House Sparrow (-4.635447 55.55052)
##  7 House Sparrow  (-4.63332 55.55312)
##  8 House Sparrow  (-5.129264 50.1564)
##  9 House Sparrow (-1.303542 52.89646)
## 10 House Sparrow (0.6501153 52.61082)
## #  with 9,751 more rows
…
